hu\braininghub\neptun\repository\entity\Student_.class
hu\braininghub\neptun\repository\StudentDao.class
hu\braininghub\neptun\service\Neptun.class
hu\braininghub\neptun\dto\mapper\SubjectMapper.class
hu\braininghub\neptun\repository\CrudRepository.class
hu\braininghub\neptun\repository\entity\Subject.class
hu\braininghub\neptun\dto\mapper\Mapper.class
hu\braininghub\neptun\dto\SubjectDto.class
hu\braininghub\neptun\servlet\StudentDetailsServlet.class
hu\braininghub\neptun\repository\SubjectDao.class
hu\braininghub\neptun\servlet\StudentServlet.class
hu\braininghub\neptun\dto\mapper\StudentMapper.class
hu\braininghub\neptun\repository\entity\Student.class
hu\braininghub\neptun\repository\entity\Subject_.class
hu\braininghub\neptun\dto\StudentDto.class
